﻿object={
	name="steppe_bush_01_generator_0"
	clamp_to_water_level=no
	render_under_water=no
	generated_content=yes
	layer="grass_layer"
	pdxmesh="steppe_bush_01_mesh"
	count=208
	transform="1061.079712 0.000000 3117.167725 0.000000 0.739165 0.000000 0.673524 0.381929 0.381929 0.381929
1064.196533 0.000000 3133.190674 0.000000 0.671825 0.000000 -0.740710 0.633276 0.633276 0.633276
1069.518311 0.000000 3123.705322 0.000000 0.746017 0.000000 -0.665927 0.619621 0.619621 0.619621
1084.426025 0.000000 3131.970703 0.000000 0.423835 0.000000 -0.905739 0.682463 0.682463 0.682463
1069.764160 0.000000 3114.550537 0.000000 0.906345 0.000000 -0.422539 0.569975 0.569975 0.569975
1062.826904 0.000000 3123.638428 0.000000 0.996892 0.000000 -0.078778 0.512846 0.512846 0.512846
1068.821655 0.000000 3129.471680 0.000000 0.826919 0.000000 0.562320 0.403463 0.403463 0.403463
1066.483643 0.000000 3119.084717 0.000000 0.965648 0.000000 0.259855 0.457178 0.457178 0.457178
1065.568115 0.000000 3126.810059 0.000000 0.941268 0.000000 -0.337660 0.556108 0.556108 0.556108
1066.232056 0.000000 3122.774658 0.000000 0.608464 0.000000 -0.793581 0.651042 0.651042 0.651042
1108.833130 0.000000 3130.296387 0.000000 0.984738 0.000000 -0.174043 0.528387 0.528387 0.528387
1136.145264 0.000000 3093.193359 0.000000 0.156109 0.000000 -0.987740 0.726818 0.726818 0.726818
1110.840576 0.000000 3102.681885 0.000000 0.841677 0.000000 0.539982 0.406723 0.406723 0.406723
1093.428711 0.000000 3129.805908 0.000000 0.446024 0.000000 0.895021 0.320813 0.320813 0.320813
1104.308105 0.000000 3116.608154 0.000000 0.437175 0.000000 -0.899377 0.682876 0.682876 0.682876
1121.656372 0.000000 3092.161865 0.000000 0.227211 0.000000 -0.973846 0.714357 0.714357 0.714357
1114.836792 0.000000 3113.055420 0.000000 0.045727 0.000000 -0.998954 0.744624 0.744624 0.744624
1119.181763 0.000000 3127.183838 0.000000 0.808671 0.000000 0.588261 0.399514 0.399514 0.399514
1111.537964 0.000000 3121.665527 0.000000 0.757528 0.000000 0.652802 0.385021 0.385021 0.385021
1129.408691 0.000000 3087.662109 0.000000 0.819735 0.000000 0.572743 0.399895 0.399895 0.399895
1104.072998 0.000000 3097.837646 0.000000 0.121824 0.000000 -0.992552 0.733275 0.733275 0.733275
1127.794922 0.000000 3096.833740 0.000000 0.917975 0.000000 0.396637 0.434579 0.434579 0.434579
1107.492432 0.000000 3109.469238 0.000000 0.981419 0.000000 0.191875 0.468428 0.468428 0.468428
1116.371338 0.000000 3134.223389 0.000000 0.950095 0.000000 -0.311961 0.551879 0.551879 0.551879
1103.450317 0.000000 3104.198975 0.000000 0.020966 0.000000 0.999780 0.249468 0.249468 0.249468
1087.969116 0.000000 3132.321533 0.000000 0.940661 0.000000 -0.339347 0.556400 0.556400 0.556400
1098.228882 0.000000 3132.947998 0.000000 0.589617 0.000000 -0.807683 0.652573 0.652573 0.652573
1104.239868 0.000000 3133.391357 0.000000 0.715325 0.000000 -0.698792 0.625554 0.625554 0.625554
1113.571655 0.000000 3127.041748 0.000000 0.987702 0.000000 0.156346 0.474720 0.474720 0.474720
1109.931885 0.000000 3115.872803 0.000000 0.153235 0.000000 0.988190 0.266525 0.266525 0.266525
1093.444824 0.000000 3135.187744 0.000000 0.988329 0.000000 -0.152335 0.525199 0.525199 0.525199
1109.369629 0.000000 3097.514160 0.000000 0.461265 0.000000 0.887262 0.323577 0.323577 0.323577
1131.074463 0.000000 3093.029785 0.000000 0.542259 0.000000 -0.840211 0.662521 0.662521 0.662521
1124.156128 0.000000 3087.800049 0.000000 0.989686 0.000000 0.143252 0.476763 0.476763 0.476763
1134.440063 0.000000 3088.580811 0.000000 0.852316 0.000000 -0.523028 0.589316 0.589316 0.589316
1126.353516 0.000000 3091.923584 0.000000 0.344446 0.000000 0.938806 0.300640 0.300640 0.300640
1107.640747 0.000000 3119.587891 0.000000 0.997462 0.000000 -0.071198 0.511652 0.511652 0.511652
1113.063232 0.000000 3131.334717 0.000000 0.328603 0.000000 0.944468 0.297889 0.297889 0.297889
1107.415527 0.000000 3105.377197 0.000000 0.149341 0.000000 -0.988786 0.733237 0.733237 0.733237
1106.816162 0.000000 3101.092773 0.000000 0.675807 0.000000 0.737078 0.363964 0.363964 0.363964
1110.350464 0.000000 3133.957520 0.000000 0.971272 0.000000 0.237973 0.460559 0.460559 0.460559
1106.619507 0.000000 3113.608643 0.000000 0.960755 0.000000 0.277398 0.454036 0.454036 0.454036
1091.352295 0.000000 3132.551514 0.000000 0.647118 0.000000 0.762390 0.357684 0.357684 0.357684
1131.576416 0.000000 3089.927002 0.000000 0.215521 0.000000 -0.976499 0.723031 0.723031 0.723031
1072.153076 0.000000 3157.177734 0.000000 0.115011 0.000000 -0.993364 0.736197 0.736197 0.736197
1070.012695 0.000000 3165.520752 0.000000 0.795623 0.000000 0.605792 0.393991 0.393991 0.393991
1063.802734 0.000000 3160.818115 0.000000 0.999357 0.000000 0.035857 0.494225 0.494225 0.494225
1077.394409 0.000000 3165.457275 0.000000 0.251197 0.000000 0.967936 0.288768 0.288768 0.288768
1085.522339 0.000000 3136.041016 0.000000 0.587683 0.000000 0.809091 0.347038 0.347038 0.347038
1076.326538 0.000000 3160.336914 0.000000 0.996089 0.000000 -0.088350 0.514245 0.514245 0.514245
1067.082275 0.000000 3157.014160 0.000000 0.995634 0.000000 -0.093346 0.515170 0.515170 0.515170
1069.295776 0.000000 3161.104492 0.000000 0.729893 0.000000 0.683562 0.375987 0.375987 0.375987
1073.574341 0.000000 3163.617920 0.000000 0.863120 0.000000 0.504999 0.413434 0.413434 0.413434
1144.507324 0.000000 3187.588623 0.000000 0.841768 0.000000 0.539840 0.408175 0.408175 0.408175
1116.234131 0.000000 3142.899170 0.000000 0.874504 0.000000 0.485018 0.418774 0.418774 0.418774
1099.248779 0.000000 3136.021240 0.000000 0.955249 0.000000 0.295802 0.450895 0.450895 0.450895
1104.933594 0.000000 3152.651855 0.000000 0.633205 0.000000 -0.773985 0.641422 0.641422 0.641422
1121.656372 0.000000 3156.146240 0.000000 0.466894 0.000000 -0.884313 0.674041 0.674041 0.674041
1088.239624 0.000000 3138.527588 0.000000 0.110574 0.000000 0.993868 0.261256 0.261256 0.261256
1123.362915 0.000000 3135.796875 0.000000 0.909250 0.000000 0.416251 0.431404 0.431404 0.431404
1097.542358 0.000000 3145.479736 0.000000 0.810811 0.000000 0.585308 0.400097 0.400097 0.400097
1109.441528 0.000000 3135.588379 0.000000 0.497379 0.000000 -0.867533 0.673047 0.673047 0.673047
1148.418213 0.000000 3195.955078 0.000000 0.897066 0.000000 -0.441896 0.573418 0.573418 0.573418
1148.324707 0.000000 3179.043945 0.000000 0.767657 0.000000 -0.640862 0.611580 0.611580 0.611580
1107.505981 0.000000 3144.258057 0.000000 0.038429 0.000000 -0.999261 0.752490 0.752490 0.752490
1129.408691 0.000000 3151.646484 0.000000 0.289399 0.000000 -0.957208 0.708852 0.708852 0.708852
1123.389771 0.000000 3146.379150 0.000000 0.849748 0.000000 -0.527190 0.591150 0.591150 0.591150
1116.639648 0.000000 3150.545166 0.000000 0.127331 0.000000 0.991860 0.266718 0.266718 0.266718
1110.594727 0.000000 3149.554199 0.000000 0.824016 0.000000 -0.566567 0.596992 0.596992 0.596992
1117.371582 0.000000 3136.958008 0.000000 0.724492 0.000000 -0.689283 0.623885 0.623885 0.623885
1094.655518 0.000000 3139.921875 0.000000 0.226188 0.000000 0.974084 0.281285 0.281285 0.281285
1104.459961 0.000000 3138.989014 0.000000 0.411050 0.000000 0.911613 0.310975 0.310975 0.310975
1150.034302 0.000000 3186.320557 0.000000 0.134292 0.000000 -0.990942 0.736629 0.736629 0.736629
1111.348633 0.000000 3140.537354 0.000000 0.102921 0.000000 -0.994690 0.740003 0.740003 0.740003
1102.606567 0.000000 3146.399414 0.000000 0.166108 0.000000 0.986108 0.271303 0.271303 0.271303
1151.225952 0.000000 3191.304199 0.000000 0.089204 0.000000 0.996013 0.258668 0.258668 0.258668
1124.156128 0.000000 3151.784424 0.000000 0.659865 0.000000 0.751384 0.359918 0.359918 0.359918
1099.970459 0.000000 3140.840576 0.000000 0.838047 0.000000 0.545598 0.406350 0.406350 0.406350
1126.353516 0.000000 3155.907959 0.000000 0.926962 0.000000 0.375156 0.437354 0.437354 0.437354
1128.101929 0.000000 3147.269287 0.000000 0.940816 0.000000 0.338918 0.443890 0.443890 0.443890
1118.944336 0.000000 3146.646729 0.000000 0.361708 0.000000 -0.932291 0.695593 0.695593 0.695593
1151.456177 0.000000 3182.084717 0.000000 0.776262 0.000000 0.630410 0.388889 0.388889 0.388889
1106.241821 0.000000 3148.542480 0.000000 0.024173 0.000000 -0.999708 0.750979 0.750979 0.750979
1092.036011 0.000000 3136.488037 0.000000 0.999982 0.000000 -0.005977 0.500981 0.500981 0.500981
1113.325317 0.000000 3136.896973 0.000000 0.833632 0.000000 -0.552321 0.596051 0.596051 0.596051
1105.396851 0.000000 3135.240234 0.000000 0.812658 0.000000 -0.582741 0.601728 0.601728 0.601728
1120.529541 0.000000 3150.637939 0.000000 0.690852 0.000000 -0.722996 0.632148 0.632148 0.632148
1103.909058 0.000000 3142.790283 0.000000 0.067178 0.000000 -0.997741 0.745869 0.745869 0.745869
1108.230835 0.000000 3138.864990 0.000000 0.020636 0.000000 -0.999787 0.755423 0.755423 0.755423
1088.398926 0.000000 3135.384277 0.000000 0.897290 0.000000 0.441442 0.424665 0.424665 0.424665
1125.456543 0.000000 3148.966797 0.000000 0.992713 0.000000 0.120499 0.480097 0.480097 0.480097
1153.835205 0.000000 3178.245850 0.000000 0.933847 0.000000 0.357673 0.441329 0.441329 0.441329
1157.420898 0.000000 3193.790283 0.000000 0.072328 0.000000 0.997381 0.259651 0.259651 0.259651
1152.360229 0.000000 3186.351074 0.000000 0.992108 0.000000 0.125386 0.479285 0.479285 0.479285
1156.770752 0.000000 3188.655273 0.000000 0.386981 0.000000 0.922088 0.310311 0.310311 0.310311
1153.159302 0.000000 3191.780273 0.000000 0.668401 0.000000 -0.743801 0.636631 0.636631 0.636631
1130.852295 0.000000 3207.165283 0.000000 0.891514 0.000000 0.452993 0.423124 0.423124 0.423124
1137.625854 0.000000 3212.700439 0.000000 0.289840 0.000000 -0.957075 0.705590 0.705590 0.705590
1135.417114 0.000000 3200.646973 0.000000 0.874566 0.000000 0.484906 0.418163 0.418163 0.418163
1140.751343 0.000000 3206.521973 0.000000 0.243111 0.000000 0.969998 0.286603 0.286603 0.286603
1135.720215 0.000000 3208.093018 0.000000 0.688617 0.000000 0.725125 0.366841 0.366841 0.366841
1132.500732 0.000000 3211.877197 0.000000 0.375526 0.000000 0.926812 0.307568 0.307568 0.307568
1133.390747 0.000000 3204.144775 0.000000 0.230090 0.000000 -0.973169 0.719733 0.719733 0.719733
3102.340820 0.000000 2339.246338 0.000000 0.779085 0.000000 0.626919 0.384546 0.384546 0.384546
3099.193604 0.000000 2335.687744 0.000000 0.918774 0.000000 0.394784 0.432370 0.432370 0.432370
3102.017578 0.000000 2334.758057 0.000000 0.999911 0.000000 -0.013309 0.502376 0.502376 0.502376
3099.971436 0.000000 2332.966309 0.000000 0.257276 0.000000 -0.966338 0.720039 0.720039 0.720039
3102.623291 0.000000 2336.987061 0.000000 0.881845 0.000000 -0.471540 0.586732 0.586732 0.586732
3123.321777 0.000000 2468.240723 0.000000 0.571094 0.000000 0.820885 0.335922 0.335922 0.335922
3121.383789 0.000000 2444.887939 0.000000 0.966024 0.000000 0.258454 0.456436 0.456436 0.456436
3124.298340 0.000000 2477.725586 0.000000 0.996335 0.000000 0.085534 0.485408 0.485408 0.485408
3116.840576 0.000000 2467.795898 0.000000 0.966846 0.000000 -0.255361 0.541581 0.541581 0.541581
3119.867676 0.000000 2479.605225 0.000000 0.982513 0.000000 -0.186196 0.530392 0.530392 0.530392
3123.495605 0.000000 2473.112793 0.000000 0.587204 0.000000 0.809439 0.343410 0.343410 0.343410
3121.526123 0.000000 2464.092285 0.000000 0.298215 0.000000 -0.954499 0.713675 0.713675 0.713675
3124.134033 0.000000 2481.951904 0.000000 0.594795 0.000000 -0.803878 0.652696 0.652696 0.652696
3121.324463 0.000000 2459.789795 0.000000 0.307762 0.000000 0.951463 0.292724 0.292724 0.292724
3125.614014 0.000000 2493.472412 0.000000 0.692059 0.000000 0.721841 0.368628 0.368628 0.368628
3121.053711 0.000000 2475.911865 0.000000 0.417149 0.000000 -0.908838 0.690768 0.690768 0.690768
3120.146240 0.000000 2467.246582 0.000000 0.001168 0.000000 -0.999999 0.769407 0.769407 0.769407
3122.493408 0.000000 2479.655029 0.000000 0.849502 0.000000 -0.527585 0.594348 0.594348 0.594348
3123.825439 0.000000 2459.103516 0.000000 0.931527 0.000000 0.363673 0.436580 0.436580 0.436580
3124.868652 0.000000 2475.259521 0.000000 0.925348 0.000000 0.379118 0.434473 0.434473 0.434473
3122.721680 0.000000 2461.945801 0.000000 0.326814 0.000000 0.945089 0.289853 0.289853 0.289853
3122.283936 0.000000 2466.229004 0.000000 0.975164 0.000000 0.221483 0.461528 0.461528 0.461528
3122.254150 0.000000 2477.611328 0.000000 0.549109 0.000000 -0.835751 0.670453 0.670453 0.670453
3126.678223 0.000000 2496.142822 0.000000 0.239904 0.000000 0.970797 0.286070 0.286070 0.286070
3114.610107 0.000000 2503.337158 0.000000 0.863699 0.000000 -0.504007 0.589675 0.589675 0.589675
3105.414063 0.000000 2516.302490 0.000000 0.642805 0.000000 0.766030 0.360025 0.360025 0.360025
3132.176025 0.000000 2556.111328 0.000000 0.334132 0.000000 0.942526 0.290402 0.290402 0.290402
3117.514160 0.000000 2538.691162 0.000000 0.634581 0.000000 -0.772856 0.641689 0.641689 0.641689
3117.762695 0.000000 2525.677002 0.000000 0.929770 0.000000 -0.368141 0.561415 0.561415 0.561415
3102.558594 0.000000 2523.649902 0.000000 0.403761 0.000000 -0.914865 0.686735 0.686735 0.686735
3100.397461 0.000000 2510.701416 0.000000 0.359842 0.000000 -0.933013 0.693667 0.693667 0.693667
3132.895020 0.000000 2531.542480 0.000000 0.084455 0.000000 0.996427 0.255109 0.255109 0.255109
3102.340820 0.000000 2531.199463 0.000000 0.959903 0.000000 0.280333 0.454423 0.454423 0.454423
3131.289307 0.000000 2501.768066 0.000000 0.499074 0.000000 -0.866559 0.672071 0.672071 0.672071
3124.509033 0.000000 2502.693848 0.000000 0.884921 0.000000 0.465740 0.419568 0.419568 0.419568
3109.052002 0.000000 2501.134766 0.000000 0.893928 0.000000 -0.448211 0.575710 0.575710 0.575710
3114.832275 0.000000 2517.170410 0.000000 0.055311 0.000000 -0.998469 0.751597 0.751597 0.751597
3116.258545 0.000000 2508.049072 0.000000 0.801088 0.000000 0.598547 0.393467 0.393467 0.393467
3119.867676 0.000000 2543.589600 0.000000 0.962094 0.000000 -0.272718 0.544651 0.544651 0.544651
3110.111328 0.000000 2516.064209 0.000000 0.967808 0.000000 0.251689 0.457443 0.457443 0.457443
3099.193604 0.000000 2527.640869 0.000000 0.034188 0.000000 0.999415 0.248729 0.248729 0.248729
3111.859863 0.000000 2507.425537 0.000000 0.970503 0.000000 0.241088 0.460184 0.460184 0.460184
3104.711426 0.000000 2527.649902 0.000000 0.686365 0.000000 -0.727257 0.632144 0.632144 0.632144
3101.250732 0.000000 2514.804688 0.000000 0.938734 0.000000 0.344643 0.440047 0.440047 0.440047
3124.134033 0.000000 2545.936279 0.000000 0.417247 0.000000 -0.908793 0.687903 0.687903 0.687903
3117.148682 0.000000 2500.316650 0.000000 0.843416 0.000000 0.537261 0.407605 0.407605 0.407605
3128.132080 0.000000 2503.583984 0.000000 0.208743 0.000000 0.977971 0.269882 0.269882 0.269882
3110.499023 0.000000 2504.250977 0.000000 0.420780 0.000000 0.907163 0.309191 0.309191 0.309191
3112.293457 0.000000 2500.679932 0.000000 0.999966 0.000000 0.008200 0.498613 0.498613 0.498613
3102.017578 0.000000 2526.711182 0.000000 0.382315 0.000000 -0.924032 0.700068 0.700068 0.700068
3116.760498 0.000000 2505.252197 0.000000 0.976789 0.000000 -0.214205 0.535975 0.535975 0.535975
3112.802490 0.000000 2515.332764 0.000000 0.466473 0.000000 0.884536 0.317753 0.317753 0.317753
3114.219238 0.000000 2506.049561 0.000000 0.990624 0.000000 0.136615 0.477077 0.477077 0.477077
3135.524902 0.000000 2531.748779 0.000000 0.122306 0.000000 0.992492 0.253245 0.253245 0.253245
3112.288330 0.000000 2502.999756 0.000000 0.842767 0.000000 -0.538278 0.597912 0.597912 0.597912
3156.583252 0.000000 2554.437012 0.000000 0.221938 0.000000 0.975061 0.275531 0.275531 0.275531
3137.593018 0.000000 2538.402100 0.000000 0.686566 0.000000 -0.727067 0.631591 0.631591 0.631591
3141.178711 0.000000 2553.946533 0.000000 0.901861 0.000000 0.432026 0.426669 0.426669 0.426669
3143.784180 0.000000 2524.715088 0.000000 0.901822 0.000000 0.432107 0.428606 0.428606 0.428606
3152.058105 0.000000 2540.748779 0.000000 0.581835 0.000000 0.813307 0.347647 0.347647 0.347647
3136.331055 0.000000 2529.556396 0.000000 0.963775 0.000000 0.266718 0.455345 0.455345 0.455345
3135.719238 0.000000 2556.462158 0.000000 0.371947 0.000000 -0.928254 0.696770 0.696770 0.696770
3153.698486 0.000000 2547.834717 0.000000 0.992034 0.000000 -0.125970 0.520496 0.520496 0.520496
3140.869873 0.000000 2533.422852 0.000000 0.883863 0.000000 -0.467745 0.581416 0.581416 0.581416
3146.788818 0.000000 2520.461670 0.000000 0.985275 0.000000 0.170978 0.471260 0.471260 0.471260
3139.874512 0.000000 2542.751709 0.000000 0.573467 0.000000 -0.819229 0.655795 0.655795 0.655795
3144.877930 0.000000 2550.217285 0.000000 0.099875 0.000000 0.995000 0.260414 0.260414 0.260414
3148.223145 0.000000 2525.024414 0.000000 0.653612 0.000000 -0.756830 0.642520 0.642520 0.642520
3147.675537 0.000000 2541.044678 0.000000 0.874180 0.000000 0.485602 0.412971 0.412971 0.412971
3149.238281 0.000000 2555.410645 0.000000 0.022455 0.000000 -0.999748 0.760921 0.760921 0.760921
3144.522949 0.000000 2554.037354 0.000000 0.209532 0.000000 -0.977802 0.724041 0.724041 0.724041
3143.199951 0.000000 2542.039063 0.000000 0.725694 0.000000 -0.688018 0.625022 0.625022 0.625022
3135.691895 0.000000 2526.466064 0.000000 0.999933 0.000000 -0.011589 0.501910 0.501910 0.501910
3152.628174 0.000000 2544.973145 0.000000 0.334498 0.000000 -0.942397 0.706462 0.706462 0.706462
3146.134277 0.000000 2523.227295 0.000000 0.463548 0.000000 0.886072 0.317198 0.317198 0.317198
3141.362305 0.000000 2530.771240 0.000000 0.270375 0.000000 0.962755 0.283050 0.283050 0.283050
3148.796143 0.000000 2522.456543 0.000000 0.471927 0.000000 -0.881638 0.682558 0.682558 0.682558
3137.567139 0.000000 2554.551270 0.000000 0.997425 0.000000 -0.071720 0.512007 0.512007 0.512007
3146.589111 0.000000 2539.065430 0.000000 0.152054 0.000000 0.988372 0.257477 0.257477 0.257477
3134.810791 0.000000 2566.277832 0.000000 0.941272 0.000000 0.337648 0.442390 0.442390 0.442390
3146.998779 0.000000 2560.161865 0.000000 0.800798 0.000000 0.598935 0.395391 0.395391 0.395391
3135.989746 0.000000 2562.668213 0.000000 0.068865 0.000000 -0.997626 0.739968 0.739968 0.739968
3145.292480 0.000000 2569.620361 0.000000 0.292772 0.000000 -0.956182 0.704301 0.704301 0.704301
3157.191650 0.000000 2559.729004 0.000000 0.839896 0.000000 -0.542747 0.592740 0.592740 0.592740
3137.934570 0.000000 2568.836914 0.000000 0.801987 0.000000 0.597341 0.396913 0.396913 0.396913
3165.121582 0.000000 2561.098633 0.000000 0.576860 0.000000 -0.816843 0.658105 0.658105 0.658105
3142.405518 0.000000 2564.062500 0.000000 0.340436 0.000000 -0.940268 0.697003 0.697003 0.697003
3147.720459 0.000000 2564.981201 0.000000 0.134126 0.000000 0.990964 0.259758 0.259758 0.259758
3135.641846 0.000000 2566.058838 0.000000 0.954398 0.000000 -0.298538 0.550709 0.550709 0.550709
3144.837891 0.000000 2566.274902 0.000000 0.317174 0.000000 -0.948367 0.705644 0.705644 0.705644
3145.278809 0.000000 2563.355469 0.000000 0.830661 0.000000 -0.556778 0.598035 0.598035 0.598035
4293.054199 0.000000 2815.265869 0.000000 0.881719 0.000000 0.471776 0.420580 0.420580 0.420580
4412.019531 0.000000 2748.064453 0.000000 0.401980 0.000000 -0.915649 0.684883 0.684883 0.684883
4374.196289 0.000000 2701.663574 0.000000 0.070094 0.000000 0.997540 0.257418 0.257418 0.257418
4446.394531 0.000000 2779.587402 0.000000 0.415849 0.000000 -0.909434 0.684593 0.684593 0.684593
4243.257813 0.000000 2863.650391 0.000000 0.915725 0.000000 -0.401805 0.567099 0.567099 0.567099
4337.838379 0.000000 2875.705078 0.000000 0.880725 0.000000 -0.473628 0.580376 0.580376 0.580376
4335.026367 0.000000 2880.725098 0.000000 0.949199 0.000000 0.314676 0.448453 0.448453 0.448453
4340.360840 0.000000 2886.600098 0.000000 0.956143 0.000000 -0.292899 0.547866 0.547866 0.547866
4338.695801 0.000000 2882.746094 0.000000 0.134714 0.000000 -0.990884 0.734767 0.734767 0.734767
4386.964355 0.000000 2879.859375 0.000000 0.992203 0.000000 -0.124634 0.520122 0.520122 0.520122
4367.674316 0.000000 2905.884521 0.000000 0.128775 0.000000 -0.991674 0.735746 0.735746 0.735746
4392.903809 0.000000 2881.368164 0.000000 0.077328 0.000000 -0.997006 0.742341 0.742341 0.742341
4364.074707 0.000000 2908.930664 0.000000 0.567180 0.000000 -0.823594 0.658849 0.658849 0.658849
4367.439941 0.000000 2909.426514 0.000000 0.226952 0.000000 -0.973906 0.722774 0.722774 0.722774
"}
