k_cast = {
	1020.11.5 = {
		holder = 89 #Wynstan sil Cast
	}
}

k_anor = {
	1020.11.5 = {
		holder = 90 #Lain sil Anor
	}
}

k_castonath = {
	1020.10.31 = {
		holder = 92 #Chlothar of Castonath
		government = republic_government
	}
}