151 = {

    # Misc
    culture = beefoot_halfling
    religion = small_temple
	holding = city_holding

    # History
}

155 = {

    # Misc
    culture = beefoot_halfling
    religion = small_temple

    # History
}

60 = {

    # Misc
    culture = beefoot_halfling
    religion = small_temple

    # History
}

157 = {

    # Misc
    culture = beefoot_halfling
    religion = small_temple

    # History
}

205 = {

    # Misc
    culture = beefoot_halfling
    religion = small_temple

    # History
}