160 = {

    # Misc
    culture = hillfoot_halfling
    religion = small_temple

    # History
}

161 = {

    # Misc
    culture = hillfoot_halfling
    religion = small_temple

    # History
}

162 = {

    # Misc
    culture = hillfoot_halfling
    religion = small_temple

    # History
}

164 = {

    # Misc
    culture = hillfoot_halfling
    religion = small_temple
	holding = city_holding

    # History
}

63 = {

    # Misc
    culture = hillfoot_halfling
    religion = small_temple
	holding = city_holding

    # History
}

66 = {

    # Misc
    culture = hillfoot_halfling
    religion = small_temple
	holding = city_holding

    # History
}

149 = {

    # Misc
    culture = hillfoot_halfling
    religion = small_temple

    # History
}

12 = {

    # Misc
    culture = hillfoot_halfling
    religion = small_temple

    # History
}

76 = {

    # Misc
    culture = hillfoot_halfling
    religion = small_temple

    # History
}

206 = {

    # Misc
    culture = hillfoot_halfling
    religion = small_temple

    # History
}

7 = {
	
	# Misc
	 culture = hillfoot_halfling
	 religion = small_temple
	
	# History
}

348 = {

    # Misc
    culture = hillfoot_halfling
    religion = small_temple

    # History
}

210 = {

    # Misc
    culture = hillfoot_halfling
    religion = small_temple

    # History
}

159 = {

    # Misc
    culture = hillfoot_halfling
    religion = small_temple

    # History
}

166 = {

    # Misc
    culture = hillfoot_halfling
    religion = small_temple

    # History
}

135 = {

    # Misc
    culture = hillfoot_halfling
    religion = small_temple
	holding = city_holding

    # History
}