216 = {

    # Misc
    culture = vertesker
    religion = cult_of_the_dame

    # History
}

217 = {

    # Misc
    culture = gawedi
    religion = cult_of_the_dame

    # History
}

218 = {

    # Misc
    culture = gawedi
    religion = cult_of_the_dame

    # History
}

219 = {

    # Misc
    culture = vertesker
    religion = cult_of_the_dame

    # History
}

220 = {

    # Misc
    culture = gawedi
    religion = cult_of_the_dame

    # History
}

221 = {

    # Misc
    culture = gawedi
    religion = cult_of_the_dame

    # History
}

222 = {

    # Misc
    culture = gawedi
    religion = cult_of_the_dame

    # History
}

223 = {

    # Misc
    culture = gawedi
    religion = cult_of_the_dame

    # History
}

224 = {

    # Misc
    culture = gawedi
    religion = cult_of_the_dame

    # History
}

225 = {

    # Misc
    culture = old_alenic
    religion = cult_of_the_dame

    # History
}

226 = {

    # Misc
    culture = old_alenic
    religion = cult_of_the_dame

    # History
}

227 = {

    # Misc
    culture = old_alenic
    religion = cult_of_the_dame

    # History
}

228 = {

    # Misc
    culture = old_alenic
    religion = cult_of_the_dame

    # History
}

235 = {

    # Misc
    culture = vertesker
    religion = cult_of_the_dame

    # History
}

237 = {

    # Misc
    culture = gawedi
    religion = cult_of_the_dame

    # History
}

239 = {

    # Misc
    culture = gawedi
    religion = cult_of_the_dame

    # History
}

240 = {

    # Misc
    culture = old_alenic
    religion = cult_of_the_dame

    # History

}

241 = {

    # Misc
    culture = old_alenic
    religion = cult_of_the_dame

    # History

}

242 = {

    # Misc
    culture = old_alenic
    religion = cult_of_the_dame

    # History

}

243 = {

    # Misc
    culture = gawedi
    religion = cult_of_the_dame

    # History

}

251 = {

    # Misc
    culture = vertesker
    religion = cult_of_the_dame

    # History
}

337 = {

    # Misc
    culture = gawedi
    religion = cult_of_the_dame

    # History
}

338 = {

    # Misc
    culture = gawedi
    religion = cult_of_the_dame

    # History
}

339 = {

    # Misc
    culture = gawedi
    religion = cult_of_the_dame

    # History
}

340 = {

    # Misc
    culture = gawedi
    religion = cult_of_the_dame

    # History
}

341 = {

    # Misc
    culture = gawedi
    religion = cult_of_the_dame

    # History
}

343 = {

    # Misc
    culture = old_alenic
    religion = cult_of_the_dame

    # History
}

344 = {

    # Misc
    culture = old_alenic
    religion = cult_of_the_dame

    # History
}

346 = {

    # Misc
    culture = gawedi
    religion = cult_of_the_dame

    # History
}