695 = {

    # Misc
    culture = blue_reachmen
    religion = cult_of_the_dame

    # History
}

696 = {

    # Misc
    culture = moon_elvish
    religion = cult_of_the_dame
	holding = city_holding

    # History
}

697 = {

    # Misc
    culture = blue_reachmen
    religion = cult_of_the_dame

    # History
}

698 = {

    # Misc
    culture = blue_reachmen
    religion = cult_of_the_dame

    # History
}

699 = {

    # Misc
    culture = blue_reachmen
    religion = cult_of_the_dame

    # History
}

700 = {

    # Misc
    culture = blue_reachmen
    religion = cult_of_the_dame

    # History
}

702 = {

    # Misc
    culture = old_alenic
    religion = cult_of_the_dame

    # History
}

703 = {

    # Misc
    culture = old_alenic
    religion = cult_of_the_dame

    # History
}

704 = {

    # Misc
    culture = blue_reachmen
    religion = cult_of_the_dame

    # History
}

705 = {

    # Misc
    culture = blue_reachmen
    religion = cult_of_the_dame

    # History
}

706 = {

    # Misc
    culture = blue_reachmen
    religion = cult_of_the_dame

    # History
}

721 = {

    # Misc
    culture = blue_reachmen
    religion = cult_of_the_dame

    # History
}

722 = {

    # Misc
    culture = blue_reachmen
    religion = cult_of_the_dame

    # History
}

723 = {

    # Misc
    culture = blue_reachmen
    religion = cult_of_the_dame
	holding = city_holding

    # History
}

724 = {

    # Misc
    culture = blue_reachmen
    religion = cult_of_the_dame

    # History
}

731 = {

    # Misc
    culture = old_alenic
    religion = cult_of_the_dame

    # History
}

752 = {

    # Misc
    culture = old_alenic
    religion = cult_of_the_dame

    # History
}