954 = {

    # Misc
    culture = dalric
    religion = castanorian_pantheon

    # History
}

955 = {

    # Misc
    culture = dalric
    religion = castanorian_pantheon

    # History
}

956 = {

    # Misc
    culture = dalric
    religion = castanorian_pantheon

    # History
}

952 = {

    # Misc
    culture = dalric
    religion = castanorian_pantheon

    # History
}

953 = {

    # Misc
    culture = dalric
    religion = castanorian_pantheon

    # History
}

708 = {

    # Misc
    culture = dalric
    religion = castanorian_pantheon

    # History
}

959 = {

    # Misc
    culture = dalric
    religion = castanorian_pantheon

    # History
}

960 = {

    # Misc
    culture = dalric
    religion = castanorian_pantheon

    # History
}

993 = {

    # Misc
    culture = dalric
    religion = castanorian_pantheon

    # History
}

997 = {

    # Misc
    culture = dalric
    religion = castanorian_pantheon

    # History
}

961 = {

    # Misc
    culture = dalric
    religion = castanorian_pantheon

    # History
}

962 = {

    # Misc
    culture = dalric
    religion = castanorian_pantheon

    # History
}
958 = {

    # Misc
    culture = dalric
    religion = castanorian_pantheon

    # History
}

963 = {

    # Misc
    culture = dalric
    religion = castanorian_pantheon

    # History
}

969 = {

    # Misc
    culture = dalric
    religion = castanorian_pantheon

    # History
}

998 = {

    # Misc
    culture = dalric
    religion = castanorian_pantheon

    # History
}

957 = {

    # Misc
    culture = dalric
    religion = castanorian_pantheon

    # History
}

964 = {

    # Misc
    culture = dalric
    religion = castanorian_pantheon

    # History
}

965 = {

    # Misc
    culture = dalric
    religion = castanorian_pantheon

    # History
}

966 = {

    # Misc
    culture = dalric
    religion = castanorian_pantheon
	holding = city_holding

    # History
}

967 = {

    # Misc
    culture = dalric
    religion = castanorian_pantheon

    # History
}

968 = {

    # Misc
    culture = dalric
    religion = castanorian_pantheon

    # History
}

970 = {

    # Misc
    culture = dalric
    religion = castanorian_pantheon

    # History
}

971 = {

    # Misc
    culture = dalric
    religion = castanorian_pantheon

    # History
}

972 = {

    # Misc
    culture = olavish
    religion = castanorian_pantheon
	holding = tribal_holding

    # History
}

973 = {

    # Misc
    culture = olavish
    religion = castanorian_pantheon
	holding = tribal_holding

    # History
}

974 = {

    # Misc
    culture = olavish
    religion = castanorian_pantheon
	holding = tribal_holding

    # History
}

975 = {

    # Misc
    culture = olavish
    religion = castanorian_pantheon
	holding = tribal_holding

    # History
}

976 = {

    # Misc
    culture = olavish
    religion = castanorian_pantheon
	holding = church_holding

    # History
}

977 = {

    # Misc
    culture = olavish
    religion = castanorian_pantheon
	holding = tribal_holding

    # History
}

985 = {

    # Misc
    culture = olavish
    religion = castanorian_pantheon
	holding = tribal_holding

    # History
}

984 = {

    # Misc
    culture = olavish
    religion = castanorian_pantheon
	holding = tribal_holding

    # History
}

986 = {

    # Misc
    culture = olavish
    religion = castanorian_pantheon
	holding = tribal_holding

    # History
}

981 = {

    # Misc
    culture = olavish
    religion = castanorian_pantheon
	holding = tribal_holding

    # History
}

982 = {

    # Misc
    culture = olavish
    religion = castanorian_pantheon
	holding = tribal_holding

    # History
}

983 = {

    # Misc
    culture = olavish
    religion = castanorian_pantheon
	holding = tribal_holding

    # History
}

978 = {

    # Misc
    culture = olavish
    religion = castanorian_pantheon
	holding = tribal_holding

    # History
}

979 = {

    # Misc
    culture = olavish
    religion = castanorian_pantheon
	holding = tribal_holding

    # History
}

980 = {

    # Misc
    culture = olavish
    religion = castanorian_pantheon
	holding = tribal_holding

    # History
}

987 = {

    # Misc
    culture = taric
    religion = castanorian_pantheon
	holding = tribal_holding

    # History
}

988 = {

    # Misc
    culture = taric
    religion = castanorian_pantheon
	holding = tribal_holding

    # History
}

989 = {

    # Misc
    culture = taric
    religion = castanorian_pantheon
	holding = tribal_holding

    # History
}

990 = {

    # Misc
    culture = taric
    religion = castanorian_pantheon
	holding = tribal_holding

    # History
}

991 = {

    # Misc
    culture = taric
    religion = castanorian_pantheon
	holding = tribal_holding

    # History
}

992 = {

    # Misc
    culture = taric
    religion = castanorian_pantheon
	holding = tribal_holding

    # History
}