920 = {

    # Misc
    culture = milcori
    religion = cult_of_the_dame
	holding = tribal_holding

    # History
}

312 = {

    # Misc
    culture = milcori
    religion = cult_of_the_dame
	holding = tribal_holding

    # History
}

321 = {

    # Misc
    culture = milcori
    religion = cult_of_the_dame
	holding = tribal_holding

    # History
}

326 = {

    # Misc
    culture = milcori
    religion = cult_of_the_dame
	holding = tribal_holding

    # History
}

322 = {

    # Misc
    culture = milcori
    religion = cult_of_the_dame
	holding = tribal_holding

    # History
}

323 = {

    # Misc
    culture = milcori
    religion = cult_of_the_dame
	holding = tribal_holding

    # History
}

324 = {

    # Misc
    culture = milcori
    religion = cult_of_the_dame
	holding = tribal_holding

    # History
}

421 = {

    # Misc
    culture = milcori
    religion = cult_of_the_dame
	holding = tribal_holding

    # History
}

418 = {

    # Misc
    culture = milcori
    religion = cult_of_the_dame
	holding = tribal_holding

    # History
}

313 = {

    # Misc
    culture = milcori
    religion = cult_of_the_dame
	holding = tribal_holding

    # History
}

325 = {

    # Misc
    culture = milcori
    religion = cult_of_the_dame
	holding = tribal_holding

    # History
}

904 = {

    # Misc
    culture = milcori
    religion = cult_of_the_dame
	holding = tribal_holding

    # History
}

412 = {

    # Misc
    culture = milcori
    religion = cult_of_the_dame
	holding = tribal_holding

    # History
}

413 = {

    # Misc
    culture = milcori
    religion = cult_of_the_dame
	holding = tribal_holding

    # History
}

921 = {

    # Misc
    culture = milcori
    religion = cult_of_the_dame
	holding = tribal_holding

    # History
}

922 = {

    # Misc
    culture = milcori
    religion = cult_of_the_dame
	holding = tribal_holding

    # History
}

416 = {

    # Misc
    culture = milcori
    religion = cult_of_the_dame
	holding = tribal_holding

    # History
}

419 = {

    # Misc
    culture = milcori
    religion = cult_of_the_dame
	holding = tribal_holding

    # History
}

420 = {

    # Misc
    culture = milcori
    religion = cult_of_the_dame
	holding = tribal_holding

    # History
}

414 = {

    # Misc
    culture = milcori
    religion = cult_of_the_dame
	holding = tribal_holding

    # History
}

417 = {

    # Misc
    culture = milcori
    religion = cult_of_the_dame
	holding = tribal_holding

    # History
}

409 = {

    # Misc
    culture = milcori
    religion = cult_of_the_dame
	holding = tribal_holding

    # History
}

410 = {

    # Misc
    culture = milcori
    religion = cult_of_the_dame
	holding = tribal_holding

    # History
}

411 = {

    # Misc
    culture = milcori
    religion = cult_of_the_dame
	holding = tribal_holding

    # History
}