﻿object={
	name="cliff big 01"
	clamp_to_water_level=no
	render_under_water=no
	generated_content=no
	layer="temp_layer"
	pdxmesh="cliff_big_01_mesh"
	count=0
}
object={
	name="cliff big 02"
	clamp_to_water_level=no
	render_under_water=no
	generated_content=no
	layer="temp_layer"
	pdxmesh="cliff_big_02_mesh"
	count=2
	transform="1581.965332 -1.325195 2543.045166 0.000000 -0.196916 0.000000 0.980420 1.000000 1.000000 1.000000
1583.229248 -1.593506 2534.232422 0.000000 0.852174 0.000000 0.523258 1.000000 1.000000 1.000000
"}
object={
	name="cliff end 01"
	clamp_to_water_level=no
	render_under_water=no
	generated_content=no
	layer="temp_layer"
	pdxmesh="cliff_end_01_mesh"
	count=0
}
object={
	name="cliff end 02"
	clamp_to_water_level=no
	render_under_water=no
	generated_content=no
	layer="temp_layer"
	pdxmesh="cliff_end_02_mesh"
	count=0
}
object={
	name="cliff rock 01"
	clamp_to_water_level=no
	render_under_water=no
	generated_content=no
	layer="temp_layer"
	pdxmesh="cliff_rock_01_mesh"
	count=5
	transform="1579.866821 0.000000 2540.067871 0.000000 0.000000 0.000000 1.000000 1.000000 1.000000 1.000000
1585.152344 0.000000 2543.884277 0.000000 0.000000 0.000000 1.000000 1.000000 1.000000 1.000000
1585.897949 0.000000 2544.564209 0.000000 0.000000 0.000000 1.000000 1.000000 1.000000 1.000000
1587.430054 0.000000 2540.401367 0.000000 0.000000 0.000000 1.000000 1.000000 1.000000 1.000000
1587.239136 0.000000 2539.121338 0.000000 0.000000 0.000000 1.000000 1.000000 1.000000 1.000000
"}
object={
	name="cliff rock 02"
	clamp_to_water_level=no
	render_under_water=no
	generated_content=no
	layer="temp_layer"
	pdxmesh="cliff_rock_02_mesh"
	count=8
	transform="1586.758789 0.000000 2543.661133 0.000000 0.000000 0.000000 1.000000 1.000000 1.000000 1.000000
1584.615234 0.000000 2544.182617 0.000000 0.000000 0.000000 1.000000 1.000000 1.000000 1.000000
1579.007813 0.000000 2540.321777 0.000000 0.000000 0.000000 1.000000 1.000000 1.000000 1.000000
1578.691040 0.000000 2538.839355 0.000000 0.000000 0.000000 1.000000 1.000000 1.000000 1.000000
1580.551025 0.000000 2542.290527 0.000000 0.000000 0.000000 1.000000 1.000000 1.000000 1.000000
1584.207275 0.000000 2538.875000 0.000000 0.000000 0.000000 1.000000 1.000000 1.000000 1.000000
1586.335693 0.000000 2539.015381 0.000000 0.000000 0.000000 1.000000 1.000000 1.000000 1.000000
1587.773193 0.000000 2541.469238 0.000000 0.000000 0.000000 1.000000 1.000000 1.000000 1.000000
"}
object={
	name="cliff rock 03"
	clamp_to_water_level=no
	render_under_water=no
	generated_content=no
	layer="temp_layer"
	pdxmesh="cliff_rock_03_mesh"
	count=4
	transform="1582.838257 0.000000 2543.730469 0.000000 0.000000 0.000000 1.000000 1.000000 1.000000 1.000000
1586.356567 0.000000 2546.156982 0.000000 0.000000 0.000000 1.000000 1.000000 1.000000 1.000000
1586.083984 0.000000 2539.619385 0.000000 0.000000 0.000000 1.000000 1.000000 1.000000 1.000000
1586.657227 0.000000 2540.948975 0.000000 0.000000 0.000000 1.000000 1.000000 1.000000 1.000000
"}
object={
	name="cliff small 01"
	clamp_to_water_level=no
	render_under_water=no
	generated_content=no
	layer="temp_layer"
	pdxmesh="cliff_small_01_mesh"
	count=0
}
