﻿object={
	name="env_coast_foam_l"
	clamp_to_water_level=yes
	render_under_water=yes
	generated_content=no
	layer="coast_foam_layer"
	entity="env_coast_foam_l"
	count=156
	transform="800.816711 0.000000 3308.993896 0.000000 0.309730 0.000000 -0.950824 1.000000 1.000000 1.000000
818.421936 0.000000 3319.487793 0.000000 -0.298576 0.000000 0.954386 1.000000 1.000000 1.000000
783.402161 0.000000 3354.384033 0.000000 0.997180 0.000000 0.075051 1.000000 1.000000 1.000000
849.115234 0.000000 3287.124268 0.000000 -0.999828 -0.000000 -0.018565 1.000000 1.000000 1.000000
874.758728 0.000000 3286.371338 0.000000 0.999217 0.000000 0.039559 1.000000 1.000000 1.000000
873.804321 0.000000 3211.631104 0.000000 0.426175 0.000000 -0.904640 1.000000 1.000000 1.000000
598.612061 0.000000 3255.095703 0.000000 0.736917 0.000000 0.675983 1.000000 1.000000 1.000000
374.032196 0.000000 1215.738281 0.000000 0.926594 0.000000 0.376063 1.000000 1.000000 1.000000
2407.550781 0.000000 3955.712646 0.000000 0.976551 0.000000 -0.215286 1.000000 1.000000 1.000000
2457.062256 0.000000 3927.631348 0.000000 0.962434 0.000000 -0.271516 1.000000 1.000000 1.000000
2496.021484 0.000000 3911.830811 0.000000 0.972984 0.000000 -0.230874 1.000000 1.000000 1.000000
2543.003662 0.000000 3857.454102 0.000000 -0.786556 0.000000 0.617519 1.000000 1.000000 1.000000
2538.271240 0.000000 3826.964844 0.000000 0.551600 0.000000 -0.834109 1.000000 1.000000 1.000000
2509.348633 0.000000 3785.509277 0.000000 -0.259861 0.000000 0.965646 1.000000 1.000000 1.000000
2544.650879 0.000000 3718.447510 0.000000 0.382515 0.000000 0.923949 1.000000 1.000000 1.000000
2526.545898 0.000000 3754.590820 0.000000 0.759741 0.000000 0.650226 1.000000 1.000000 1.000000
229.664749 0.000000 3827.883057 0.000000 0.090659 0.000000 0.995882 1.000000 1.000000 1.000000
255.106247 0.000000 3808.201660 0.000000 0.492008 0.000000 0.870591 1.000000 1.000000 1.000000
273.623596 0.000000 3789.852051 0.000000 0.286870 0.000000 0.957969 1.000000 1.000000 1.000000
305.212433 0.000000 3776.104248 0.000000 0.055814 0.000000 0.998441 1.000000 1.000000 1.000000
341.306335 0.000000 3784.115723 0.000000 -0.255243 0.000000 0.966877 1.000000 1.000000 1.000000
395.256439 0.000000 3799.062988 0.000000 -0.316362 0.000000 0.948639 1.000000 1.000000 1.000000
216.270355 0.000000 1067.690430 0.000000 0.819058 0.000000 0.573711 1.000000 1.000000 1.000000
256.750946 0.000000 1119.856323 0.000000 0.959576 0.000000 0.281450 1.000000 1.000000 1.000000
277.937225 0.000000 1155.586792 0.000000 -0.835402 0.000000 -0.549640 1.000000 1.000000 1.000000
320.326019 0.000000 1194.844849 0.000000 0.998854 0.000000 0.047863 1.000000 1.000000 1.000000
109.993187 0.000000 868.588806 0.000000 0.773062 0.000000 0.634330 1.000000 1.000000 1.000000
3628.786865 0.000000 182.401566 0.000000 -0.412226 0.000000 0.911081 1.000000 1.000000 1.000000
3613.851807 0.000000 163.905991 0.000000 -0.412226 0.000000 0.911081 1.000000 1.000000 1.000000
3599.320801 0.000000 147.919724 0.000000 -0.412226 0.000000 0.911081 1.000000 1.000000 1.000000
3586.049805 0.000000 132.486572 0.000000 -0.412226 0.000000 0.911081 1.000000 1.000000 1.000000
3571.906982 0.000000 115.157196 0.000000 -0.412226 0.000000 0.911081 1.000000 1.000000 1.000000
3553.591797 0.000000 93.487686 0.000000 -0.412226 0.000000 0.911081 1.000000 1.000000 1.000000
3536.115234 0.000000 72.078560 0.000000 -0.412226 0.000000 0.911081 1.000000 1.000000 1.000000
3696.333984 0.000000 455.652771 0.000000 0.991323 0.000000 0.131450 1.000000 1.000000 1.000000
3624.454590 0.000000 441.252625 0.000000 -0.980202 0.000000 -0.197998 1.000000 1.000000 1.000000
3603.148193 0.000000 436.505676 0.000000 -0.998467 0.000000 -0.055348 1.000000 1.000000 1.000000
3528.669189 0.000000 416.695068 0.000000 -0.996867 0.000000 0.079093 1.000000 1.000000 1.000000
3483.301514 0.000000 411.751404 0.000000 0.975336 0.000000 0.220727 1.000000 1.000000 1.000000
3171.598389 0.000000 683.647644 0.000000 -0.780870 0.000000 0.624694 1.000000 1.000000 1.000000
3162.275391 0.000000 713.473572 0.000000 -0.812499 0.000000 0.582963 1.000000 1.000000 1.000000
3148.488281 0.000000 741.332092 0.000000 -0.869203 0.000000 0.494455 1.000000 1.000000 1.000000
3053.298096 0.000000 906.444214 0.000000 -0.926337 0.000000 0.376695 1.000000 1.000000 1.000000
2557.250732 0.000000 1309.519531 0.000000 -0.999502 0.000000 0.031545 1.000000 1.000000 1.000000
2526.334961 0.000000 1318.286987 0.000000 0.998298 0.000000 -0.058321 1.000000 1.000000 1.000000
2500.989746 0.000000 1320.882324 0.000000 0.999050 0.000000 -0.043570 1.000000 1.000000 1.000000
2134.816406 0.000000 1264.029541 0.000000 0.885664 0.000000 0.464328 1.000000 1.000000 1.000000
2121.763184 0.000000 1248.993042 0.000000 -0.946253 0.000000 -0.323428 1.000000 1.000000 1.000000
1931.767212 0.000000 1273.153198 0.000000 -0.999368 0.000000 0.035541 1.000000 1.000000 1.000000
1912.378174 0.000000 1277.090210 0.000000 -0.990546 0.000000 0.137181 1.000000 1.000000 1.000000
1950.994873 0.000000 1272.693970 0.000000 -0.999630 0.000000 0.027214 1.000000 1.000000 1.000000
1976.615845 0.000000 1270.296021 0.000000 -0.995510 0.000000 0.094656 1.000000 1.000000 1.000000
138.877609 0.000000 633.316162 0.000000 0.693679 0.000000 0.720284 1.000000 1.000000 1.000000
146.848907 0.000000 666.220581 0.000000 0.863993 0.000000 0.503505 1.000000 1.000000 1.000000
140.299179 0.000000 453.497131 0.000000 0.349338 0.000000 0.936997 1.000000 1.000000 1.000000
376.698730 0.000000 200.414810 0.000000 0.137211 0.000000 0.990542 1.000000 1.000000 1.000000
397.097778 0.000000 193.281616 0.000000 0.187164 0.000000 0.982329 1.000000 1.000000 1.000000
418.581970 0.000000 183.210144 0.000000 0.249617 0.000000 0.968345 1.000000 1.000000 1.000000
1482.416870 0.000000 40.834999 0.000000 0.435636 0.000000 0.900123 1.000000 1.000000 1.000000
1466.533936 0.000000 65.907768 0.000000 0.399802 0.000000 0.916602 1.000000 1.000000 1.000000
1441.156494 0.000000 101.991821 0.000000 0.461857 0.000000 0.886955 1.000000 1.000000 1.000000
1423.942871 0.000000 127.852051 0.000000 0.325704 0.000000 0.945472 1.000000 1.000000 1.000000
1300.997803 0.000000 141.518326 0.000000 -0.012619 0.000000 0.999920 1.000000 1.000000 1.000000
1323.330078 0.000000 143.098709 0.000000 0.001755 0.000000 0.999998 1.000000 1.000000 1.000000
1347.202881 0.000000 142.993301 0.000000 0.051262 0.000000 0.998685 1.000000 1.000000 1.000000
1118.656006 0.000000 97.552269 0.000000 -0.248749 0.000000 0.968568 1.000000 1.000000 1.000000
1094.248291 0.000000 86.796631 0.000000 -0.118980 0.000000 0.992897 1.000000 1.000000 1.000000
1034.340942 0.000000 68.731689 0.000000 -0.182699 0.000000 0.983169 1.000000 1.000000 1.000000
988.533630 0.000000 76.508362 0.000000 0.077947 0.000000 0.996958 1.000000 1.000000 1.000000
958.723511 0.000000 82.027527 0.000000 0.032747 0.000000 0.999464 1.000000 1.000000 1.000000
884.003479 0.000000 88.386490 0.000000 -0.062513 0.000000 0.998044 1.000000 1.000000 1.000000
854.937866 0.000000 86.576515 0.000000 -0.071586 0.000000 0.997434 1.000000 1.000000 1.000000
820.530090 0.000000 84.998817 0.000000 -0.060114 0.000000 0.998192 1.000000 1.000000 1.000000
789.459656 0.000000 80.592934 0.000000 -0.097220 0.000000 0.995263 1.000000 1.000000 1.000000
550.268799 0.000000 100.025345 0.000000 0.334066 0.000000 0.942550 1.000000 1.000000 1.000000
588.223389 0.000000 77.482521 0.000000 0.228783 0.000000 0.973477 1.000000 1.000000 1.000000
628.177612 0.000000 59.427475 0.000000 0.157529 0.000000 0.987514 1.000000 1.000000 1.000000
691.502441 0.000000 52.276089 0.000000 -0.205959 0.000000 0.978561 1.000000 1.000000 1.000000
710.910278 0.000000 60.394974 0.000000 -0.222488 0.000000 0.974936 1.000000 1.000000 1.000000
3757.528564 0.000000 395.747986 0.000000 -0.718240 0.000000 0.695795 1.000000 1.000000 1.000000
2676.878174 0.000000 1977.057739 0.000000 -0.996265 0.000000 0.086344 1.000000 1.000000 1.000000
3143.791504 0.000000 953.657776 0.000000 0.751647 0.000000 0.659566 1.000000 1.000000 1.000000
3147.376465 0.000000 923.272827 0.000000 0.623863 0.000000 0.781534 1.000000 1.000000 1.000000
3167.960205 0.000000 882.778564 0.000000 0.416975 0.000000 0.908918 1.000000 1.000000 1.000000
3284.593018 0.000000 760.753723 0.000000 0.437393 0.000000 0.899270 1.000000 1.000000 1.000000
3301.532959 0.000000 745.926636 0.000000 0.353574 0.000000 0.935407 1.000000 1.000000 1.000000
3420.171143 0.000000 502.415985 0.000000 -0.011780 0.000000 0.999931 1.000000 1.000000 1.000000
3507.849365 0.000000 538.692810 0.000000 -0.098230 0.000000 0.995164 1.000000 1.000000 1.000000
3567.171875 0.000000 548.767456 0.000000 -0.133511 0.000000 0.991047 1.000000 1.000000 1.000000
3596.408203 0.000000 566.153381 0.000000 -0.178062 0.000000 0.984019 1.000000 1.000000 1.000000
3618.652344 0.000000 567.670044 0.000000 -0.010376 0.000000 0.999946 1.000000 1.000000 1.000000
3666.772461 0.000000 600.538086 0.000000 -0.216861 0.000000 0.976203 1.000000 1.000000 1.000000
3689.962402 0.000000 612.186523 0.000000 -0.196617 0.000000 0.980480 1.000000 1.000000 1.000000
3729.803711 0.000000 626.242126 0.000000 -0.169917 0.000000 0.985458 1.000000 1.000000 1.000000
3749.666016 0.000000 633.289856 0.000000 -0.177911 0.000000 0.984047 1.000000 1.000000 1.000000
3768.423340 0.000000 640.678284 0.000000 -0.163960 0.000000 0.986467 1.000000 1.000000 1.000000
3898.136719 0.000000 732.106628 0.000000 -0.081513 0.000000 0.996672 1.000000 1.000000 1.000000
3878.611816 0.000000 725.084167 0.000000 -0.206750 0.000000 0.978394 1.000000 1.000000 1.000000
3857.694580 0.000000 718.304565 0.000000 -0.161912 0.000000 0.986805 1.000000 1.000000 1.000000
3840.349609 0.000000 711.163330 0.000000 -0.161912 0.000000 0.986805 1.000000 1.000000 1.000000
4136.067383 0.000000 1055.259766 0.000000 -0.931844 0.000000 0.362858 1.000000 1.000000 1.000000
4123.583496 0.000000 1069.093262 0.000000 -0.921338 0.000000 0.388762 1.000000 1.000000 1.000000
4106.706543 0.000000 1086.857422 0.000000 -0.910643 0.000000 0.413195 1.000000 1.000000 1.000000
4007.693604 0.000000 1120.358521 0.000000 -0.935570 0.000000 0.353142 1.000000 1.000000 1.000000
3954.243408 0.000000 1210.626709 0.000000 0.834931 0.000000 0.550355 1.000000 1.000000 1.000000
3925.958496 0.000000 1174.783325 0.000000 0.885706 0.000000 0.464246 1.000000 1.000000 1.000000
3713.406006 0.000000 1188.613403 0.000000 0.873099 0.000000 0.487543 1.000000 1.000000 1.000000
3648.020752 0.000000 1396.362427 0.000000 -0.335267 0.000000 0.942123 1.000000 1.000000 1.000000
3672.842773 0.000000 1379.687134 0.000000 0.415838 0.000000 0.909439 1.000000 1.000000 1.000000
3682.695801 0.000000 1369.837036 0.000000 0.408915 0.000000 0.912573 1.000000 1.000000 1.000000
4035.460938 0.000000 1197.656006 0.000000 0.045974 0.000000 0.998943 1.000000 1.000000 1.000000
4068.404053 0.000000 1193.237915 0.000000 -0.016448 0.000000 0.999865 1.000000 1.000000 1.000000
4086.357178 0.000000 1194.357422 0.000000 -0.012664 0.000000 0.999920 1.000000 1.000000 1.000000
4123.368652 0.000000 1190.090454 0.000000 0.066540 0.000000 0.997784 1.000000 1.000000 1.000000
4151.068359 0.000000 1188.390137 0.000000 -0.036674 0.000000 0.999327 1.000000 1.000000 1.000000
4177.008301 0.000000 1189.168213 0.000000 0.056123 0.000000 0.998424 1.000000 1.000000 1.000000
4194.734375 0.000000 1187.480103 0.000000 0.063678 0.000000 0.997971 1.000000 1.000000 1.000000
4216.145508 0.000000 1183.099976 0.000000 0.110977 0.000000 0.993823 1.000000 1.000000 1.000000
4282.794434 0.000000 1195.410034 0.000000 -0.098777 0.000000 0.995110 1.000000 1.000000 1.000000
4338.579590 0.000000 1211.065063 0.000000 -0.086257 0.000000 0.996273 1.000000 1.000000 1.000000
4364.635254 0.000000 1209.448242 0.000000 0.006775 0.000000 0.999977 1.000000 1.000000 1.000000
4396.629395 0.000000 1215.952637 0.000000 -0.044846 0.000000 0.998994 1.000000 1.000000 1.000000
4418.522461 0.000000 1220.333374 0.000000 -0.099141 0.000000 0.995073 1.000000 1.000000 1.000000
4443.162109 0.000000 1226.279907 0.000000 -0.156640 0.000000 0.987656 1.000000 1.000000 1.000000
5067.140137 0.000000 454.834045 0.000000 0.576252 0.000000 0.817272 1.000000 1.000000 1.000000
5074.450684 0.000000 436.815674 0.000000 0.554404 0.000000 0.832248 1.000000 1.000000 1.000000
5103.180664 0.000000 389.959595 0.000000 0.377886 0.000000 0.925852 1.000000 1.000000 1.000000
5118.737793 0.000000 375.258453 0.000000 0.345625 0.000000 0.938373 1.000000 1.000000 1.000000
5134.185547 0.000000 363.854187 0.000000 0.255084 0.000000 0.966919 1.000000 1.000000 1.000000
5167.901855 0.000000 365.265259 0.000000 -0.268279 0.000000 0.963341 1.000000 1.000000 1.000000
5292.310059 0.000000 328.506653 0.000000 0.633002 0.000000 0.774150 1.000000 1.000000 1.000000
5297.874023 0.000000 304.403900 0.000000 0.580981 0.000000 0.813917 1.000000 1.000000 1.000000
5308.645020 0.000000 281.070831 0.000000 0.520959 0.000000 0.853582 1.000000 1.000000 1.000000
5333.065918 0.000000 259.730072 0.000000 0.118132 0.000000 0.992998 1.000000 1.000000 1.000000
5359.840820 0.000000 263.666077 0.000000 -0.212718 0.000000 0.977114 1.000000 1.000000 1.000000
5370.665039 0.000000 900.461487 0.000000 -0.316195 0.000000 0.948694 1.000000 1.000000 1.000000
5938.065918 0.000000 1013.963013 0.000000 0.752069 0.000000 0.659084 1.000000 1.000000 1.000000
5933.776855 0.000000 990.487366 0.000000 0.787535 0.000000 0.616270 1.000000 1.000000 1.000000
5929.772949 0.000000 966.217590 0.000000 0.778347 0.000000 0.627834 1.000000 1.000000 1.000000
6016.303711 0.000000 963.767212 0.000000 -0.502132 0.000000 0.864791 1.000000 1.000000 1.000000
6123.593262 0.000000 961.260437 0.000000 0.623839 0.000000 0.781553 1.000000 1.000000 1.000000
6129.367676 0.000000 934.297791 0.000000 0.659041 0.000000 0.752107 1.000000 1.000000 1.000000
3797.401855 0.000000 1807.264282 0.000000 0.994685 0.000000 0.102962 1.000000 1.000000 1.000000
3768.575928 0.000000 1798.281982 0.000000 0.991980 0.000000 0.126396 1.000000 1.000000 1.000000
3740.690430 0.000000 1789.420776 0.000000 0.981065 0.000000 0.193680 1.000000 1.000000 1.000000
3656.444580 0.000000 1801.294800 0.000000 -0.961804 0.000000 0.273739 1.000000 1.000000 1.000000
3678.285645 0.000000 1789.268311 0.000000 -0.990388 0.000000 0.138314 1.000000 1.000000 1.000000
3577.509766 0.000000 1855.480469 0.000000 -0.795905 0.000000 0.605421 1.000000 1.000000 1.000000
3556.691406 0.000000 2070.775146 0.000000 -0.874079 0.000000 0.485783 1.000000 1.000000 1.000000
3539.216797 0.000000 2093.059814 0.000000 -0.911523 0.000000 0.411249 1.000000 1.000000 1.000000
3523.125000 0.000000 2110.372314 0.000000 -0.911523 0.000000 0.411249 1.000000 1.000000 1.000000
3506.526855 0.000000 2130.708740 0.000000 0.904267 0.000000 -0.426967 1.000000 1.000000 1.000000
3491.996338 0.000000 2149.559570 0.000000 -0.899579 0.000000 0.436758 1.000000 1.000000 1.000000
3455.057861 0.000000 2246.018799 0.000000 0.892008 0.000000 -0.452020 1.000000 1.000000 1.000000
3449.628174 0.000000 2336.622314 0.000000 -0.518456 0.000000 0.855105 1.000000 1.000000 1.000000
3442.406982 0.000000 2316.130127 0.000000 -0.640016 0.000000 0.768362 1.000000 1.000000 1.000000
"}
object={
	name="env_coast_foam_m"
	clamp_to_water_level=yes
	render_under_water=yes
	generated_content=no
	layer="coast_foam_layer"
	entity="env_coast_foam_m"
	count=76
	transform="836.362732 0.000000 3328.842285 0.000000 -0.344494 0.000000 0.938788 1.000000 1.000000 1.000000
819.267151 0.000000 3289.617676 0.000000 -0.993348 0.000000 -0.115151 1.000000 1.000000 1.000000
593.000488 0.000000 3241.189209 0.000000 0.935995 0.000000 0.352014 1.000000 1.000000 1.000000
731.091553 0.000000 3352.266602 0.000000 0.884445 0.000000 0.466644 1.000000 1.000000 1.000000
829.188293 0.000000 3385.372559 0.000000 0.728480 0.000000 0.685067 1.000000 1.000000 1.000000
454.053741 0.000000 1313.536987 0.000000 0.533880 0.000000 0.845560 1.000000 1.000000 1.000000
445.182495 0.000000 1325.966187 0.000000 0.391197 0.000000 0.920307 1.000000 1.000000 1.000000
440.648346 0.000000 1345.036987 0.000000 0.719007 0.000000 0.695003 1.000000 1.000000 1.000000
211.339035 0.000000 3832.990723 0.000000 0.136639 0.000000 0.990621 1.000000 1.000000 1.000000
417.381805 0.000000 3809.075684 0.000000 -0.148553 0.000000 0.988904 1.000000 1.000000 1.000000
457.278870 0.000000 3815.006592 0.000000 -0.305576 0.000000 0.952168 1.000000 1.000000 1.000000
493.013153 0.000000 3838.235352 0.000000 -0.220215 0.000000 0.975451 1.000000 1.000000 1.000000
519.380371 0.000000 3898.058350 0.000000 -0.963176 0.000000 0.268870 1.000000 1.000000 1.000000
503.431427 0.000000 3943.850830 0.000000 -0.081358 0.000000 0.996685 1.000000 1.000000 1.000000
482.799622 0.000000 3948.879639 0.000000 0.996367 0.000000 0.085166 1.000000 1.000000 1.000000
444.140503 0.000000 3958.885986 0.000000 0.776064 0.000000 0.630654 1.000000 1.000000 1.000000
413.720398 0.000000 3948.701416 0.000000 0.940210 0.000000 0.340594 1.000000 1.000000 1.000000
317.451965 0.000000 3948.637207 0.000000 0.798478 0.000000 0.602024 1.000000 1.000000 1.000000
288.536652 0.000000 3985.506592 0.000000 -0.894699 0.000000 0.446669 1.000000 1.000000 1.000000
3678.858398 0.000000 252.886368 0.000000 -0.475806 0.000000 0.879550 1.000000 1.000000 1.000000
3688.323242 0.000000 264.373322 0.000000 -0.345540 0.000000 0.938404 1.000000 1.000000 1.000000
3768.230957 0.000000 433.794098 0.000000 -0.669512 0.000000 0.742802 1.000000 1.000000 1.000000
3765.687012 0.000000 452.262878 0.000000 -0.663094 0.000000 0.748536 1.000000 1.000000 1.000000
3756.463867 0.000000 480.519257 0.000000 0.990981 0.000000 -0.134000 1.000000 1.000000 1.000000
3718.676514 0.000000 463.249817 0.000000 0.972312 0.000000 0.233685 1.000000 1.000000 1.000000
3677.833496 0.000000 449.488007 0.000000 -0.981626 0.000000 -0.190813 1.000000 1.000000 1.000000
3663.871338 0.000000 445.137817 0.000000 -0.993293 0.000000 -0.115621 1.000000 1.000000 1.000000
3647.673584 0.000000 444.904388 0.000000 -0.996757 0.000000 0.080475 1.000000 1.000000 1.000000
3575.779053 0.000000 435.478577 0.000000 -0.989744 0.000000 -0.142855 1.000000 1.000000 1.000000
3560.453857 0.000000 425.157104 0.000000 0.965782 0.000000 0.259356 1.000000 1.000000 1.000000
3508.232422 0.000000 419.858002 0.000000 0.996072 0.000000 -0.088542 1.000000 1.000000 1.000000
3468.196289 0.000000 404.095490 0.000000 0.969887 0.000000 0.243554 1.000000 1.000000 1.000000
3452.265625 0.000000 401.857758 0.000000 0.999771 0.000000 -0.021396 1.000000 1.000000 1.000000
3438.152832 0.000000 402.625275 0.000000 0.996102 0.000000 -0.088208 1.000000 1.000000 1.000000
3366.111328 0.000000 463.425537 0.000000 -0.170759 0.000000 0.985313 1.000000 1.000000 1.000000
3380.851563 0.000000 471.617310 0.000000 -0.242522 0.000000 0.970146 1.000000 1.000000 1.000000
3385.475830 0.000000 493.082886 0.000000 -0.800355 0.000000 0.599527 1.000000 1.000000 1.000000
2650.484863 0.000000 1974.306763 0.000000 0.996871 0.000000 0.079045 1.000000 1.000000 1.000000
3351.479492 0.000000 620.485535 0.000000 0.467518 0.000000 0.883984 1.000000 1.000000 1.000000
3914.215576 0.000000 734.765198 0.000000 0.000000 0.000000 1.000000 1.000000 1.000000 1.000000
3993.623535 0.000000 1133.925415 0.000000 -0.923635 0.000000 0.383272 1.000000 1.000000 1.000000
3983.137939 0.000000 1150.462769 0.000000 -0.815318 0.000000 0.579014 1.000000 1.000000 1.000000
3978.602051 0.000000 1165.994873 0.000000 -0.727790 0.000000 0.685800 1.000000 1.000000 1.000000
3979.233154 0.000000 1183.322998 0.000000 -0.748782 0.000000 0.662817 1.000000 1.000000 1.000000
3978.227539 0.000000 1198.587646 0.000000 -0.562252 0.000000 0.826966 1.000000 1.000000 1.000000
3944.583984 0.000000 1194.524170 0.000000 0.919669 0.000000 0.392695 1.000000 1.000000 1.000000
3915.208984 0.000000 1162.268555 0.000000 0.904818 0.000000 0.425800 1.000000 1.000000 1.000000
3740.517090 0.000000 1120.141968 0.000000 -0.602140 0.000000 0.798390 1.000000 1.000000 1.000000
3609.950195 0.000000 1401.734131 0.000000 0.229503 0.000000 0.973308 1.000000 1.000000 1.000000
3662.428955 0.000000 1395.606934 0.000000 0.633946 0.000000 0.773377 1.000000 1.000000 1.000000
4466.993652 0.000000 1230.062500 0.000000 0.122615 0.000000 0.992454 1.000000 1.000000 1.000000
4477.253906 0.000000 1225.204468 0.000000 0.329251 0.000000 0.944242 1.000000 1.000000 1.000000
4480.125000 0.000000 1213.439697 0.000000 0.730651 0.000000 0.682751 1.000000 1.000000 1.000000
4491.916992 0.000000 1201.670166 0.000000 -0.055696 0.000000 0.998448 1.000000 1.000000 1.000000
4508.575684 0.000000 1202.346924 0.000000 0.016967 0.000000 0.999856 1.000000 1.000000 1.000000
5182.857910 0.000000 375.625641 0.000000 -0.350661 0.000000 0.936503 1.000000 1.000000 1.000000
5386.416504 0.000000 912.107361 0.000000 -0.306509 0.000000 0.951868 1.000000 1.000000 1.000000
5401.741699 0.000000 932.675781 0.000000 -0.496208 0.000000 0.868203 1.000000 1.000000 1.000000
5413.041504 0.000000 946.204590 0.000000 -0.356826 0.000000 0.934171 1.000000 1.000000 1.000000
5773.603516 0.000000 1229.688721 0.000000 0.577349 0.000000 0.816497 1.000000 1.000000 1.000000
5777.145508 0.000000 1212.823364 0.000000 0.717475 0.000000 0.696584 1.000000 1.000000 1.000000
5785.354004 0.000000 1193.897217 0.000000 0.420024 0.000000 0.907513 1.000000 1.000000 1.000000
5795.892578 0.000000 1177.520630 0.000000 0.410641 0.000000 0.911797 1.000000 1.000000 1.000000
5936.108887 0.000000 1034.997314 0.000000 0.565176 0.000000 0.824970 1.000000 1.000000 1.000000
3605.572754 0.000000 1826.140747 0.000000 0.998531 0.000000 -0.054177 1.000000 1.000000 1.000000
3591.690430 0.000000 1833.412720 0.000000 -0.947814 0.000000 0.318824 1.000000 1.000000 1.000000
3434.083252 0.000000 2296.685059 0.000000 -0.419442 0.000000 0.907782 1.000000 1.000000 1.000000
3508.365967 0.000000 2412.149658 0.000000 -0.249473 0.000000 0.968382 1.000000 1.000000 1.000000
3521.682861 0.000000 2416.348877 0.000000 -0.080814 0.000000 0.996729 1.000000 1.000000 1.000000
3536.553711 0.000000 2419.383789 0.000000 -0.085649 0.000000 0.996325 1.000000 1.000000 1.000000
3551.528564 0.000000 2425.038086 0.000000 -0.218171 0.000000 0.975910 1.000000 1.000000 1.000000
3563.374756 0.000000 2432.805908 0.000000 -0.356855 0.000000 0.934160 1.000000 1.000000 1.000000
3572.640381 0.000000 2443.705322 0.000000 -0.274007 0.000000 0.961728 1.000000 1.000000 1.000000
3583.812988 0.000000 2451.291504 0.000000 -0.284878 0.000000 0.958564 1.000000 1.000000 1.000000
3596.201660 0.000000 2456.415283 0.000000 -0.211495 0.000000 0.977379 1.000000 1.000000 1.000000
3611.348389 0.000000 2459.948242 0.000000 0.066418 0.000000 0.997792 1.000000 1.000000 1.000000
"}
object={
	name="env_coast_foam_s"
	clamp_to_water_level=yes
	render_under_water=yes
	generated_content=no
	layer="coast_foam_layer"
	entity="env_coast_foam_s"
	count=36
	transform="1984.435547 0.000000 4042.825195 0.000000 -0.998080 0.000000 -0.061931 1.000000 1.000000 1.000000
2010.607422 0.000000 4048.708496 0.000000 0.988943 0.000000 0.148296 1.000000 1.000000 1.000000
2047.375610 0.000000 4043.534424 0.000000 0.987478 0.000000 -0.157759 1.000000 1.000000 1.000000
2101.378906 0.000000 4028.997803 0.000000 0.913917 0.000000 0.405901 1.000000 1.000000 1.000000
2120.113281 0.000000 4051.153564 0.000000 0.933277 0.000000 0.359159 1.000000 1.000000 1.000000
2151.339355 0.000000 4039.049805 0.000000 0.855581 0.000000 0.517669 1.000000 1.000000 1.000000
2142.250488 0.000000 4050.767822 0.000000 0.714358 0.000000 -0.699780 1.000000 1.000000 1.000000
2194.503906 0.000000 4058.463135 0.000000 -0.999806 0.000000 0.019709 1.000000 1.000000 1.000000
2225.242432 0.000000 4001.717285 0.000000 -0.996022 0.000000 0.089111 1.000000 1.000000 1.000000
2254.485596 0.000000 3993.690430 0.000000 0.985400 0.000000 -0.170253 1.000000 1.000000 1.000000
2339.191406 0.000000 3974.158936 0.000000 0.994678 0.000000 -0.103032 1.000000 1.000000 1.000000
244.537857 0.000000 3994.767578 0.000000 0.943971 0.000000 0.330028 1.000000 1.000000 1.000000
210.501129 0.000000 3969.069824 0.000000 0.934785 0.000000 0.355214 1.000000 1.000000 1.000000
231.278336 0.000000 3947.554443 0.000000 0.145620 0.000000 0.989341 1.000000 1.000000 1.000000
246.235001 0.000000 3930.658691 0.000000 -0.974335 0.000000 -0.225104 1.000000 1.000000 1.000000
223.682907 0.000000 3899.934570 0.000000 0.355375 0.000000 0.934724 1.000000 1.000000 1.000000
202.016266 0.000000 3848.476074 0.000000 0.830079 0.000000 0.557645 1.000000 1.000000 1.000000
293.533081 0.000000 3952.304932 0.000000 -0.505025 0.000000 0.863105 1.000000 1.000000 1.000000
518.054199 0.000000 3855.707520 0.000000 -0.268478 0.000000 0.963286 1.000000 1.000000 1.000000
438.197968 0.000000 3810.395264 0.000000 0.030761 0.000000 0.999527 1.000000 1.000000 1.000000
366.813385 0.000000 3790.474121 0.000000 0.090752 0.000000 0.995873 1.000000 1.000000 1.000000
238.461472 0.000000 1236.276733 0.000000 0.831590 0.000000 0.555390 1.000000 1.000000 1.000000
159.190048 0.000000 1197.268799 0.000000 0.332133 0.000000 0.943233 1.000000 1.000000 1.000000
137.605774 0.000000 1228.672974 0.000000 -0.513094 0.000000 0.858332 1.000000 1.000000 1.000000
3734.876709 0.000000 1105.657837 0.000000 -0.406491 0.000000 0.913655 1.000000 1.000000 1.000000
3746.850586 0.000000 1138.260132 0.000000 -0.658490 0.000000 0.752589 1.000000 1.000000 1.000000
3742.362061 0.000000 1159.571167 0.000000 -0.735570 0.000000 0.677449 1.000000 1.000000 1.000000
3746.242920 0.000000 1176.963135 0.000000 -0.620279 0.000000 0.784382 1.000000 1.000000 1.000000
3739.408203 0.000000 1188.404175 0.000000 0.989016 0.000000 -0.147807 1.000000 1.000000 1.000000
3732.391113 0.000000 1194.879639 0.000000 -0.865390 0.000000 0.501098 1.000000 1.000000 1.000000
3689.780273 0.000000 1200.919067 0.000000 0.974081 0.000000 0.226201 1.000000 1.000000 1.000000
3685.422119 0.000000 1359.952759 0.000000 0.841586 0.000000 0.540123 1.000000 1.000000 1.000000
4231.677246 0.000000 1186.724121 0.000000 -0.064165 0.000000 0.997939 1.000000 1.000000 1.000000
4249.056152 0.000000 1185.936768 0.000000 -0.257267 0.000000 0.966340 1.000000 1.000000 1.000000
4258.995605 0.000000 1191.042114 0.000000 -0.135930 0.000000 0.990718 1.000000 1.000000 1.000000
6024.006836 0.000000 973.782043 0.000000 -0.294284 0.000000 0.955718 1.000000 1.000000 1.000000
"}
